<svg width="347" height="292" viewBox="0 0 347 292" fill="none" xmlns="http://www.w3.org/2000/svg">
<g filter="url(#filter0_d)">
<path d="M62 55.6231C62 53.3295 62 52.1827 62.4393 51.3036C62.8425 50.4967 63.4967 49.8425 64.3036 49.4393C65.1827 49 66.3295 49 68.6231 49H248.377C250.671 49 251.817 49 252.696 49.4393C253.503 49.8425 254.158 50.4967 254.561 51.3036C255 52.1827 255 53.3295 255 55.6231V179.745C255 182.833 255 184.377 254.363 185.393C253.781 186.32 252.857 186.982 251.791 187.233C250.625 187.508 249.163 187.01 246.24 186.013L160.637 156.829C159.853 156.561 159.461 156.428 159.059 156.373C158.688 156.323 158.312 156.323 157.941 156.373C157.539 156.428 157.147 156.561 156.363 156.829L70.7603 186.013C67.8369 187.01 66.3752 187.508 65.2088 187.233C64.1429 186.982 63.219 186.32 62.6369 185.393C62 184.377 62 182.833 62 179.745V55.6231Z" fill="#292C75"/>
</g>
<defs>
<filter id="filter0_d" x="0.559354" y="0.40288" width="345.734" height="291.042" filterUnits="userSpaceOnUse" color-interpolation-filters="sRGB">
<feFlood flood-opacity="0" result="BackgroundImageFix"/>
<feColorMatrix in="SourceAlpha" type="matrix" values="0 0 0 0 0 0 0 0 0 0 0 0 0 0 0 0 0 0 127 0"/>
<feOffset dx="14.9263" dy="27.7698"/>
<feGaussianBlur stdDeviation="38.1835"/>
<feColorMatrix type="matrix" values="0 0 0 0 0.688819 0 0 0 0 0.708167 0 0 0 0 0.758333 0 0 0 1 0"/>
<feBlend mode="normal" in2="BackgroundImageFix" result="effect1_dropShadow"/>
<feBlend mode="normal" in="SourceGraphic" in2="effect1_dropShadow" result="shape"/>
</filter>
</defs>
</svg>
