<svg width="12" height="20" viewBox="0 0 12 20" fill="none" xmlns="http://www.w3.org/2000/svg">
<path d="M11.4555 3.03138C12.1774 2.34458 12.1774 1.2315 11.4795 0.521018C11.1185 0.165779 10.6613 0 10.18 0C9.72271 0 9.26545 0.165779 8.92852 0.521018L0.529453 8.7389C0.192528 9.07046 0 9.52043 0 9.99408C0 10.4677 0.192528 10.9177 0.529453 11.2493L8.92852 19.4671C9.62644 20.1776 10.7575 20.1776 11.4795 19.4671C12.1774 18.7803 12.1774 17.6436 11.4555 16.9568L4.35596 9.99408L11.4555 3.03138Z" fill="#A26CB0"/>
</svg>
